// Jest Snapshot v1, https://goo.gl/fbAQLP

exports[`funds GET /funds fails if not signed in 1`] = `[UnauthorizedError: Unauthorized]`;

exports[`funds GET /funds/{id} fails if not signed in 1`] = `[UnauthorizedError: Unauthorized]`;

exports[`funds POST /funds fails if not a vendor 1`] = `[ForbiddenError: forbidden]`;

exports[`funds POST /funds fails if not signed in 1`] = `[UnauthorizedError: Unauthorized]`;
