{
  "providers": [
    "awscloudformation"
  ],
  "projectName": "blockacre",
  "version": "3.0",
  "frontend": "javascript",
  "javascript": {
    "framework": "react",
    "config": {
      "SourceDir": "blockui/src",
      "DistributionDir": "blockui/build",
      "BuildCommand": "yarn build:ui",
      "StartCommand": "yarn start:ui"
    }
  }
}