module gitlab.com/blockacre/blockacre/mock-bank

go 1.12

require (
	github.com/golang/protobuf v1.3.2 // indirect
	github.com/golang/snappy v0.0.1 // indirect
	github.com/julienschmidt/httprouter v1.2.0
	github.com/kr/pretty v0.1.0 // indirect
	github.com/onsi/ginkgo v1.8.0 // indirect
	github.com/onsi/gomega v1.5.0 // indirect
	github.com/rogpeppe/fastuuid v1.2.0
	github.com/syndtr/goleveldb v1.0.0
	golang.org/x/net v0.0.0-20190724013045-ca1201d0de80 // indirect
	golang.org/x/sys v0.0.0-20190804053845-51ab0e2deafa // indirect
	golang.org/x/text v0.3.2 // indirect
	gopkg.in/check.v1 v1.0.0-20180628173108-788fd7840127 // indirect
	gopkg.in/yaml.v2 v2.2.2 // indirect
)
